<?xml version="1.0" encoding="UTF-8"?>
<svg width="22px" height="22px" viewBox="0 0 22 22" version="1.1" xmlns="http://www.w3.org/2000/svg" xmlns:xlink="http://www.w3.org/1999/xlink">
    <!-- Generator: Sketch 49.2 (51160) - http://www.bohemiancoding.com/sketch -->
    <title>icon / input bar / search_22px_800</title>
    <desc>Created with Sketch.</desc>
    <defs></defs>
    <g id="icon-/-input-bar-/-search_22px_800" stroke="none" stroke-width="1" fill="none" fill-rule="evenodd" stroke-linecap="round" stroke-linejoin="round">
        <path d="M13.9668851,8.48344257 C13.9668851,11.5116737 11.5116737,13.9668851 8.48344257,13.9668851 C5.45521141,13.9668851 3,11.5116737 3,8.48344257 C3,5.45521141 5.45521141,3 8.48344257,3 C11.5116737,3 13.9668851,5.45521141 13.9668851,8.48344257 Z M19,19 L12.5960245,12.5960245 L19,19 Z" stroke="#37474F" stroke-width="1.5"></path>
    </g>
</svg>