<?xml version="1.0" encoding="UTF-8"?>
<svg width="14px" height="8px" viewBox="0 0 14 8" version="1.1" xmlns="http://www.w3.org/2000/svg" xmlns:xlink="http://www.w3.org/1999/xlink">
    <!-- Generator: Sketch 49.2 (51160) - http://www.bohemiancoding.com/sketch -->
    <title>icon / message preview / reciept-sent_14px_200</title>
    <desc>Created with Sketch.</desc>
    <defs></defs>
    <g id="icon-/-message-preview-/-reciept-sent_14px_200" stroke="none" stroke-width="1" fill="none" fill-rule="evenodd" stroke-linecap="round" stroke-linejoin="round">
        <polyline stroke="#B0BEC5" stroke-width="1.5" points="13 1 8.5 7 5.92971191 5.07228394 5.92971191 5.07228394"></polyline>
    </g>
</svg>