<?xml version="1.0" encoding="UTF-8"?>
<svg width="8px" height="8px" viewBox="0 0 8 8" version="1.1" xmlns="http://www.w3.org/2000/svg" xmlns:xlink="http://www.w3.org/1999/xlink">
    <!-- Generator: Sketch 49.2 (51160) - http://www.bohemiancoding.com/sketch -->
    <title>icon / group members / online_8px</title>
    <desc>Created with Sketch.</desc>
    <defs></defs>
    <g id="icon-/-group-members-/-online_8px" stroke="none" stroke-width="1" fill="none" fill-rule="evenodd">
        <circle fill="#7ED321" cx="4" cy="4" r="4"></circle>
    </g>
</svg>