<?xml version="1.0" encoding="UTF-8"?>
<svg width="24px" height="24px" viewBox="0 0 24 24" version="1.1" xmlns="http://www.w3.org/2000/svg" xmlns:xlink="http://www.w3.org/1999/xlink">
    <!-- Generator: Sketch 51.2 (57519) - http://www.bohemiancoding.com/sketch -->
    <title>Chat Search</title>
    <desc>Created with Sketch.</desc>
    <defs></defs>
    <g id="Chat-Search" stroke="none" stroke-width="1" fill="none" fill-rule="evenodd" stroke-linecap="round" stroke-linejoin="round">
        <g id="Group-21" transform="translate(4.000000, 4.000000)" stroke="#9B9B9B">
            <circle id="Oval" transform="translate(7.592909, 7.592376) rotate(-23.025000) translate(-7.592909, -7.592376) " cx="7.59290944" cy="7.59237593" r="5.37066667"></circle>
            <path d="M11.3902222,11.3896296 L15.5555556,15.5555556" id="Shape"></path>
        </g>
    </g>
</svg>