<?xml version="1.0" encoding="UTF-8"?>
<svg width="24px" height="24px" viewBox="0 0 24 24" version="1.1" xmlns="http://www.w3.org/2000/svg" xmlns:xlink="http://www.w3.org/1999/xlink">
    <!-- Generator: Sketch 51.2 (57519) - http://www.bohemiancoding.com/sketch -->
    <title>Create Event</title>
    <desc>Created with Sketch.</desc>
    <defs></defs>
    <g id="Create-Event" stroke="none" stroke-width="1" fill="none" fill-rule="evenodd" stroke-linejoin="round">
        <g id="calendar-add" transform="translate(4.000000, 4.000000)" stroke="#000000">
            <path d="M8,9 L8,13" id="Shape" stroke-linecap="round"></path>
            <path d="M6,11 L10,11" id="Shape" stroke-linecap="round"></path>
            <rect id="Rectangle-path" x="0.5" y="2.5" width="15" height="13" rx="1.5"></rect>
            <path d="M0.5,6.5 L15.5,6.5" id="Shape"></path>
            <path d="M4.5,4 L4.5,0.5" id="Shape" stroke-linecap="round"></path>
            <path d="M11.5,4 L11.5,0.5" id="Shape" stroke-linecap="round"></path>
        </g>
    </g>
</svg>