<?xml version="1.0" encoding="UTF-8"?>
<svg width="24px" height="24px" viewBox="0 0 24 24" version="1.1" xmlns="http://www.w3.org/2000/svg" xmlns:xlink="http://www.w3.org/1999/xlink">
    <!-- Generator: Sketch 51.2 (57519) - http://www.bohemiancoding.com/sketch -->
    <title>Download</title>
    <desc>Created with Sketch.</desc>
    <defs></defs>
    <g id="Download" stroke="none" stroke-width="1" fill="none" fill-rule="evenodd" stroke-linecap="round" stroke-linejoin="round" stroke-opacity="0.88">
        <g id="download-bottom" transform="translate(2.000000, 4.000000)" stroke="#000000" stroke-width="1.5">
            <path d="M10.500875,0.666666667 L10.500875,11.3333333" id="Shape"></path>
            <polyline id="Shape" points="6.563375 7.33333333 10.500875 11.3333333 14.438375 7.33333333"></polyline>
            <path d="M20.344625,12.6666667 C20.344625,14.139426 19.1693725,15.3333333 17.719625,15.3333333 L3.282125,15.3333333 C1.83237753,15.3333333 0.657125,14.139426 0.657125,12.6666667" id="Shape"></path>
        </g>
    </g>
</svg>