<?xml version="1.0" encoding="UTF-8"?>
<svg width="24px" height="24px" viewBox="0 0 24 24" version="1.1" xmlns="http://www.w3.org/2000/svg" xmlns:xlink="http://www.w3.org/1999/xlink">
    <!-- Generator: Sketch 51.2 (57519) - http://www.bohemiancoding.com/sketch -->
    <title>More Menu</title>
    <desc>Created with Sketch.</desc>
    <defs></defs>
    <g id="More-Menu" stroke="none" stroke-width="1" fill="none" fill-rule="evenodd" stroke-linecap="round" stroke-linejoin="round">
        <g id="navigation-menu-horizontal" transform="translate(4.000000, 10.000000)" stroke="#000000">
            <circle id="Oval" cx="2.25" cy="2.01533333" r="1.75"></circle>
            <circle id="Oval" cx="13.75" cy="2.01533333" r="1.75"></circle>
            <circle id="Oval" cx="8" cy="2.01533333" r="1.75"></circle>
        </g>
    </g>
</svg>