		      	<svg width="21px" height="21px" top="10px" viewBox="1 1 21 21" version="1.1" xmlns="http://www.w3.org/2000/svg" xmlns:xlink="http://www.w3.org/1999/xlink">
				    <g id="Channel/DM---Plus" stroke="none" stroke-width="1" fill="none" fill-rule="evenodd" stroke-linecap="round" stroke-linejoin="round" stroke-opacity="0.88">
				        <g id="Group-4" transform="translate(7.000000, 8.000000)" stroke="#000000" stroke-width="1.5">
				            <path d="M4.5,0.277777778 L4.5,8.72222222" id="Shape"></path>
				            <path d="M0.277777778,4.5 L8.72222222,4.5" id="Shape"></path>
				        </g>
				    </g>
				</svg>