<?xml version="1.0" encoding="UTF-8"?>
<svg width="24px" height="24px" viewBox="0 0 24 24" version="1.1" xmlns="http://www.w3.org/2000/svg" xmlns:xlink="http://www.w3.org/1999/xlink">
    <!-- Generator: Sketch 51.2 (57519) - http://www.bohemiancoding.com/sketch -->
    <title>Public Hash</title>
    <desc>Created with Sketch.</desc>
    <defs></defs>
    <g id="Public-Hash" stroke="none" stroke-width="1" fill="none" fill-rule="evenodd" stroke-linecap="round" stroke-linejoin="round">
        <g id="Group" transform="translate(5.000000, 7.000000)" stroke="#000000" stroke-width="1.5">
            <g id="programming-language-hash">
                <path d="M2.625,3.75 L13.125,3.75" id="Shape"></path>
                <path d="M0.875,6.75 L11.375,6.75" id="Shape"></path>
                <path d="M6.125,0.75 L2.625,9.75" id="Shape"></path>
                <path d="M10.5,0.75 L7,9.75" id="Shape"></path>
            </g>
        </g>
    </g>
</svg>