<?xml version="1.0" encoding="UTF-8"?>
<svg width="24px" height="24px" viewBox="0 0 24 24" version="1.1" xmlns="http://www.w3.org/2000/svg" xmlns:xlink="http://www.w3.org/1999/xlink">
    <!-- Generator: Sketch 49.2 (51160) - http://www.bohemiancoding.com/sketch -->
    <title>Add Tasks</title>
    <desc>Created with Sketch.</desc>
    <defs></defs>
    <g id="Add-Tasks" stroke="none" stroke-width="1" fill="none" fill-rule="evenodd" stroke-linecap="round" stroke-linejoin="round">
        <g id="plus-circle" transform="translate(7.000000, 7.000000)" stroke="#E3E3E3" stroke-width="2">
            <path d="M5,0.2 L5,9.8" id="Shape"></path>
            <path d="M0.2,5 L9.8,5" id="Shape"></path>
        </g>
    </g>
</svg>