<?xml version="1.0" encoding="UTF-8"?>
<svg width="24px" height="24px" viewBox="0 0 24 24" version="1.1" xmlns="http://www.w3.org/2000/svg" xmlns:xlink="http://www.w3.org/1999/xlink">
    <!-- Generator: Sketch 49.2 (51160) - http://www.bohemiancoding.com/sketch -->
    <title>Canceled</title>
    <desc>Created with Sketch.</desc>
    <defs></defs>
    <g id="Canceled" stroke="none" stroke-width="1" fill="none" fill-rule="evenodd">
        <g id="CheckMark/Canceled" transform="translate(2.000000, 2.000000)">
            <g id="error">
                <circle id="Oval" fill="#D75A4A" fill-rule="nonzero" cx="10.5" cy="10.5" r="10.5"></circle>
                <polyline id="Shape" stroke="#FFFFFF" stroke-width="2" stroke-linecap="round" points="6.72 14.28 10.5 10.5 14.28 6.72"></polyline>
                <polyline id="Shape" stroke="#FFFFFF" stroke-width="2" stroke-linecap="round" points="6.72 6.72 10.5 10.5 14.28 14.28"></polyline>
            </g>
        </g>
    </g>
</svg>