<?xml version="1.0" encoding="UTF-8"?>
<svg width="24px" height="24px" viewBox="0 0 24 24" version="1.1" xmlns="http://www.w3.org/2000/svg" xmlns:xlink="http://www.w3.org/1999/xlink">
    <!-- Generator: Sketch 50.2 (55047) - http://www.bohemiancoding.com/sketch -->
    <title>Attach An Image</title>
    <desc>Created with Sketch.</desc>
    <defs></defs>
    <g id="Attach-An-Image" stroke="none" stroke-width="1" fill="none" fill-rule="evenodd" stroke-linecap="round" stroke-linejoin="round">
        <g id="Group-19" transform="translate(4.000000, 4.000000)" stroke="#9B9B9B" stroke-width="0.8">
            <g id="image-copy" transform="translate(2.285714, 0.000000)" fill="#FFFFFF">
                <rect id="Rectangle-path" x="0" y="0" width="13.7142857" height="13.7142857" rx="2"></rect>
            </g>
            <g id="image" transform="translate(0.000000, 2.285714)">
                <rect id="Rectangle-path" fill="#FFFFFF" x="0" y="0" width="13.7142857" height="13.7142857" rx="2"></rect>
                <circle id="Oval" cx="4.19047619" cy="4.19047619" r="1.14285714"></circle>
                <polyline id="Shape" points="13.7142857 9.14285714 9.9047619 5.33333333 1.52380952 13.7142857"></polyline>
            </g>
        </g>
    </g>
</svg>