<?xml version="1.0" encoding="UTF-8"?>
<svg width="16px" height="16px" viewBox="0 0 16 16" version="1.1" xmlns="http://www.w3.org/2000/svg" xmlns:xlink="http://www.w3.org/1999/xlink">
    <!-- Generator: Sketch 50.2 (55047) - http://www.bohemiancoding.com/sketch -->
    <title>Dropdown - Active</title>
    <desc>Created with Sketch.</desc>
    <defs></defs>
    <g id="Dropdown---Active" stroke="none" stroke-width="1" fill="none" fill-rule="evenodd" fill-opacity="0.88">
        <path d="M11.1715729,6.5 L4.17157288,6.5 L7.67157288,2 L11.1715729,6.5 Z M4,8.82842712 L11,8.82842712 L7.5,13.3284271 L4,8.82842712 Z" id="Affordance" fill="#000000"></path>
    </g>
</svg>