<?xml version="1.0" encoding="UTF-8"?>
<svg width="24px" height="24px" viewBox="0 0 24 24" version="1.1" xmlns="http://www.w3.org/2000/svg" xmlns:xlink="http://www.w3.org/1999/xlink">
    <!-- Generator: Sketch 49.2 (51160) - http://www.bohemiancoding.com/sketch -->
    <title>Remove Co-owners</title>
    <desc>Created with Sketch.</desc>
    <defs></defs>
    <g id="Remove-Co-owners" stroke="none" stroke-width="1" fill="none" fill-rule="evenodd" stroke-linecap="round" stroke-linejoin="round">
        <path d="M15.5,8 L8,15.5" id="Shape" stroke="#9B9B9B"></path>
        <path d="M8,8 L15.5,15.5" id="Shape" stroke="#9B9B9B"></path>
    </g>
</svg>