<?xml version="1.0" encoding="UTF-8"?>
<svg width="24px" height="24px" viewBox="0 0 24 24" version="1.1" xmlns="http://www.w3.org/2000/svg" xmlns:xlink="http://www.w3.org/1999/xlink">
    <!-- Generator: Sketch 49.2 (51160) - http://www.bohemiancoding.com/sketch -->
    <title>Calendar - Selected</title>
    <desc>Created with Sketch.</desc>
    <defs></defs>
    <g id="Calendar---Selected" stroke="none" stroke-width="1" fill="none" fill-rule="evenodd" stroke-linecap="round" stroke-linejoin="round" stroke-opacity="0.86">
        <g id="calendar" transform="translate(7.000000, 6.000000)" stroke="#000000">
            <rect id="Rectangle-path" x="0" y="1.2" width="10.8" height="10.8" rx="2"></rect>
            <path d="M7.8,0 L7.8,2.4" id="Shape"></path>
            <path d="M3,0 L3,2.4" id="Shape"></path>
            <path d="M0,4.8 L10.8,4.8" id="Shape"></path>
        </g>
    </g>
</svg>