<?xml version="1.0" encoding="UTF-8"?>
<svg width="24px" height="24px" viewBox="0 0 24 24" version="1.1" xmlns="http://www.w3.org/2000/svg" xmlns:xlink="http://www.w3.org/1999/xlink">
    <!-- Generator: Sketch 49.2 (51160) - http://www.bohemiancoding.com/sketch -->
    <title>Close Modal</title>
    <desc>Created with Sketch.</desc>
    <defs></defs>
    <g id="Close-Modal" stroke="none" stroke-width="1" fill="none" fill-rule="evenodd" stroke-linecap="round" stroke-linejoin="round">
        <path d="M17,7 L7,17" id="Shape" stroke="#9B9B9B" stroke-width="2"></path>
        <path d="M7,7 L17,17" id="Shape" stroke="#9B9B9B" stroke-width="2"></path>
    </g>
</svg>