<?xml version="1.0" encoding="UTF-8"?>
<svg width="18px" height="18px" viewBox="0 0 18 18" version="1.1" xmlns="http://www.w3.org/2000/svg" xmlns:xlink="http://www.w3.org/1999/xlink">
    <!-- Generator: Sketch 50.2 (55047) - http://www.bohemiancoding.com/sketch -->
    <title>icon / navbar / search_18px_000</title>
    <desc>Created with Sketch.</desc>
    <defs></defs>
    <g id="icon-/-navbar-/-search_18px_000" stroke="none" stroke-width="1" fill="none" fill-rule="evenodd" opacity="0.158203125" stroke-linecap="round" stroke-linejoin="round" stroke-opacity="0.873046875">
        <path d="M15,15 L10.1970184,10.1970184 L15,15 Z M11.2251639,7.11258193 C11.2251639,9.3837553 9.3837553,11.2251639 7.11258193,11.2251639 C4.84140856,11.2251639 3,9.3837553 3,7.11258193 C3,4.84140856 4.84140856,3 7.11258193,3 C9.3837553,3 11.2251639,4.84140856 11.2251639,7.11258193 Z" id="squircle" stroke="#000000" stroke-width="1.625"></path>
    </g>
</svg>