<?xml version="1.0" encoding="UTF-8"?>
<svg width="16px" height="16px" viewBox="0 0 16 16" version="1.1" xmlns="http://www.w3.org/2000/svg" xmlns:xlink="http://www.w3.org/1999/xlink">
    <!-- Generator: Sketch 50.2 (55047) - http://www.bohemiancoding.com/sketch -->
    <title>Time - Active</title>
    <desc>Created with Sketch.</desc>
    <defs></defs>
    <g id="Time---Active" stroke="none" stroke-width="1" fill="none" fill-rule="evenodd" stroke-linecap="round" stroke-linejoin="round" stroke-opacity="0.88">
        <g id="clock-copy" transform="translate(2.000000, 2.000000)" stroke="#000000">
            <circle id="Oval" cx="6" cy="6" r="6"></circle>
            <polyline id="Shape" points="6 2.4 6 6 8.4 7.2"></polyline>
        </g>
    </g>
</svg>