<?xml version="1.0" encoding="UTF-8"?>
<svg width="24px" height="24px" viewBox="0 0 24 24" version="1.1" xmlns="http://www.w3.org/2000/svg" xmlns:xlink="http://www.w3.org/1999/xlink">
    <!-- Generator: Sketch 49.2 (51160) - http://www.bohemiancoding.com/sketch -->
    <title>More Menu</title>
    <desc>Created with Sketch.</desc>
    <defs></defs>
    <g id="More-Menu" stroke="none" stroke-width="1" fill="none" fill-rule="evenodd" stroke-linecap="round" stroke-linejoin="round" stroke-opacity="0.3">
        <g id="more-horizontal" transform="translate(4.000000, 11.000000)" stroke="#90A4AE" stroke-width="2">
            <circle id="Oval" cx="8" cy="1" r="1"></circle>
            <circle id="Oval" cx="15" cy="1" r="1"></circle>
            <circle id="Oval" cx="1" cy="1" r="1"></circle>
        </g>
    </g>
</svg>