<?xml version="1.0" encoding="UTF-8"?>
<svg width="24px" height="24px" viewBox="0 0 24 24" version="1.1" xmlns="http://www.w3.org/2000/svg" xmlns:xlink="http://www.w3.org/1999/xlink">
    <!-- Generator: Sketch 49.2 (51160) - http://www.bohemiancoding.com/sketch -->
    <title>Completed</title>
    <desc>Created with Sketch.</desc>
    <defs></defs>
    <g id="Completed" stroke="none" stroke-width="1" fill="none" fill-rule="evenodd" fill-opacity="0.7">
        <g id="checked" fill="#32CD80" fill-rule="nonzero">
            <path d="M12,0 C5.3728959,0 0,5.37267089 0,12 C0,18.6273291 5.3728959,24 12,24 C18.6278354,24 24,18.6273291 24,12 C24,5.37267089 18.6276104,0 12,0 Z M9.79870906,18.1641659 L4.51485705,12.8805389 L6.27599106,11.1194049 L9.79870906,14.6418979 L17.7240089,6.71637299 L19.4851429,8.477507 L9.79870906,18.1641659 Z" id="Shape"></path>
        </g>
    </g>
</svg>