<?xml version="1.0" encoding="UTF-8"?>
<svg width="24px" height="24px" viewBox="0 0 24 24" version="1.1" xmlns="http://www.w3.org/2000/svg" xmlns:xlink="http://www.w3.org/1999/xlink">
    <!-- Generator: Sketch 49.2 (51160) - http://www.bohemiancoding.com/sketch -->
    <title>Pinned</title>
    <desc>Created with Sketch.</desc>
    <defs></defs>
    <g id="Pinned" stroke="none" stroke-width="1" fill="none" fill-rule="evenodd" stroke-linecap="round" stroke-linejoin="round">
        <g id="icon-/-400-/-pin-16" transform="translate(12.000000, 12.000000) rotate(40.000000) translate(-12.000000, -12.000000) translate(7.000000, 5.000000)" stroke="#546E7A" stroke-width="2">
            <path d="M0.5,9 C0.5,8.76090345 0.5,8.38590345 0.5,7.875 C0.5,7.60558696 0.5,6.75 1.625,6.1875 L3.3125,5.625 L3.3125,3.375 L1.625,2.25 L1.625,0 L8.375,0 L8.375,2.25 L6.6875,3.375 L6.6875,5.625 L8.375,6.1875 C9.5,6.75 9.5,7.60558696 9.5,7.875 L9.5,9 C3.5,9 0.5,9 0.5,9 Z" id="Stroke-6282"></path>
            <path d="M5,14 L5,9" id="Stroke-6283"></path>
        </g>
    </g>
</svg>