<?xml version="1.0" encoding="UTF-8"?>
<svg width="24px" height="24px" viewBox="0 0 24 24" version="1.1" xmlns="http://www.w3.org/2000/svg" xmlns:xlink="http://www.w3.org/1999/xlink">
    <!-- Generator: Sketch 49.2 (51160) - http://www.bohemiancoding.com/sketch -->
    <title>Project More Options</title>
    <desc>Created with Sketch.</desc>
    <defs>
        <rect id="path-1" x="0" y="0" width="24" height="24"></rect>
    </defs>
    <g id="Project-More-Options" stroke="none" stroke-width="1" fill="none" fill-rule="evenodd">
        <g id="X" opacity="0">
            <g id="Rectangle-2">
                <use fill="#D8D8D8" fill-rule="evenodd" xlink:href="#path-1"></use>
                <rect stroke="#979797" stroke-width="1" x="0.5" y="0.5" width="23" height="23"></rect>
            </g>
        </g>
        <g id="Group-2" transform="translate(4.000000, 4.000000)">
            <rect id="Rectangle" fill-opacity="0" fill="#D8D8D8" x="0" y="0" width="16" height="16"></rect>
            <g id="more-horizontal" transform="translate(0.000000, 7.000000)" stroke="#090909" stroke-linecap="round" stroke-linejoin="round" stroke-width="2">
                <circle id="Oval" cx="8" cy="1" r="1"></circle>
                <circle id="Oval" cx="15" cy="1" r="1"></circle>
                <circle id="Oval" cx="1" cy="1" r="1"></circle>
            </g>
        </g>
    </g>
</svg>