<?xml version="1.0" encoding="UTF-8"?>
<svg width="34px" height="34px" viewBox="0 0 34 34" version="1.1" xmlns="http://www.w3.org/2000/svg" xmlns:xlink="http://www.w3.org/1999/xlink">
    <!-- Generator: Sketch 49.2 (51160) - http://www.bohemiancoding.com/sketch -->
    <title>icon / lightbox / chevron-next_34px_000</title>
    <desc>Created with Sketch.</desc>
    <defs></defs>
    <g id="icon-/-lightbox-/-chevron-next_34px_000" stroke="none" stroke-width="1" fill="none" fill-rule="evenodd" stroke-linecap="round" stroke-linejoin="round">
        <polyline stroke="#FFFFFF" stroke-width="1.5" points="9 33 25 17 9 1"></polyline>
    </g>
</svg>