<?xml version="1.0" encoding="UTF-8"?>
<svg width="28px" height="28px" viewBox="0 0 28 28" version="1.1" xmlns="http://www.w3.org/2000/svg" xmlns:xlink="http://www.w3.org/1999/xlink">
    <!-- Generator: Sketch 49.2 (51160) - http://www.bohemiancoding.com/sketch -->
    <title>icon / lightbox / close_28px_000</title>
    <desc>Created with Sketch.</desc>
    <defs></defs>
    <g id="icon-/-lightbox-/-close_28px_000" stroke="none" stroke-width="1" fill="none" fill-rule="evenodd" stroke-linecap="round" stroke-linejoin="round">
        <path d="M14.5,14.5 L6,6 L14.5,14.5 L6,23 L14.5,14.5 Z M14.5,14.5 L23,23 L14.5,14.5 L23,6 L14.5,14.5 Z" stroke="#FFFFFF" stroke-width="1.5"></path>
    </g>
</svg>