<?xml version="1.0" encoding="UTF-8"?>
<svg width="20px" height="20px" viewBox="0 0 20 20" version="1.1" xmlns="http://www.w3.org/2000/svg" xmlns:xlink="http://www.w3.org/1999/xlink">
    <!-- Generator: Sketch 49.2 (51160) - http://www.bohemiancoding.com/sketch -->
    <title>icon / message bubble / outgoing-flag_20px</title>
    <desc>Created with Sketch.</desc>
    <defs></defs>
    <g id="icon-/-message-bubble-/-outgoing-flag_20px" stroke="none" stroke-width="1" fill="none" fill-rule="evenodd" opacity="0.16089221" stroke-linejoin="round">
        <path d="M4.21734188,11.375 L4.21734188,17 L4.21734188,2 L4.21734188,3.25 L15.8298539,3.25 C15.8915648,3.25 15.9510952,3.27282432 15.9969882,3.31408036 C16.0996688,3.40638611 16.1080793,3.56445377 16.0157735,3.66713434 L13.0392293,6.97823131 C12.8683483,7.16831868 12.8683483,7.45668132 13.0392293,7.64676869 L16.0157735,10.9578657 C16.0570296,11.0037587 16.0798539,11.0632891 16.0798539,11.125 C16.0798539,11.2630712 15.9679251,11.375 15.8298539,11.375 L4.21734188,11.375 Z" stroke="#000000" stroke-width="1.5" fill-rule="nonzero"></path>
    </g>
</svg>