<?xml version="1.0" encoding="UTF-8"?>
<svg width="32px" height="32px" viewBox="0 0 32 32" version="1.1" xmlns="http://www.w3.org/2000/svg" xmlns:xlink="http://www.w3.org/1999/xlink">
    <!-- Generator: Sketch 49.2 (51160) - http://www.bohemiancoding.com/sketch -->
    <title>shape / squircle_32px_0000</title>
    <desc>Created with Sketch.</desc>
    <defs></defs>
    <g id="shape-/-squircle_32px_000" stroke="none" stroke-width="1" fill="none" fill-rule="evenodd">
        <path d="M16,0 C3.2,0 0,3.2 0,16 C0,28.8 3.2,32 16,32 C28.8,32 32,28.8 32,16 C32,3.2 28.8,0 16,0 Z" fill="#FFFFFF"></path>
    </g>
</svg>