<?xml version="1.0" encoding="UTF-8"?>
<svg width="24px" height="24px" viewBox="0 0 24 24" version="1.1" xmlns="http://www.w3.org/2000/svg" xmlns:xlink="http://www.w3.org/1999/xlink">
    <!-- Generator: Sketch 49.2 (51160) - http://www.bohemiancoding.com/sketch -->
    <title>shape / squircle_24px_0000</title>
    <desc>Created with Sketch.</desc>
    <defs></defs>
    <g id="shape-/-squircle_24px_000" stroke="none" stroke-width="1" fill="none" fill-rule="evenodd">
        <path d="M12,0 C2.4,0 0,2.4 0,12 C0,21.6 2.4,24 12,24 C21.6,24 24,21.6 24,12 C24,2.4 21.6,0 12,0 Z" fill="#FFFFFF"></path>
    </g>
</svg>