<?xml version="1.0" encoding="UTF-8"?>
<svg width="18px" height="18px" viewBox="0 0 18 18" version="1.1" xmlns="http://www.w3.org/2000/svg" xmlns:xlink="http://www.w3.org/1999/xlink">
    <!-- Generator: Sketch 49.2 (51160) - http://www.bohemiancoding.com/sketch -->
    <title>icon / search bar / search_18px_400</title>
    <desc>Created with Sketch.</desc>
    <defs></defs>
    <g id="icon-/-search-bar-/-search_18px_400" stroke="none" stroke-width="1" fill="none" fill-rule="evenodd" stroke-linecap="round" stroke-linejoin="round">
        <path d="M11.9668851,6.48344257 C11.9668851,9.51167374 9.51167374,11.9668851 6.48344257,11.9668851 C3.45521141,11.9668851 1,9.51167374 1,6.48344257 C1,3.45521141 3.45521141,1 6.48344257,1 C9.51167374,1 11.9668851,3.45521141 11.9668851,6.48344257 Z M17,17 L10.5960245,10.5960245 L17,17 Z" stroke="#78909C" stroke-width="2"></path>
    </g>
</svg>